1456640347514,79,Logging,200,OK,Thread Group 1-1,text,true,0,1,1,0
1456640347642,5222,Navigate to Address Page through the Load Balancer,200,"Number of samples in transaction : 1, number of failing samples : 0",Thread Group 1-1,,true,255907,1,1,0
1456640352871,22399,Address Page,200,"Number of samples in transaction : 13, number of failing samples : 0",Thread Group 1-1,,true,11866,1,1,0
1456640375461,6638,Exterior Page,200,"Number of samples in transaction : 17, number of failing samples : 0",Thread Group 1-1,,true,46058,1,1,0
1456640382191,4028,Interior Page,200,"Number of samples in transaction : 13, number of failing samples : 0",Thread Group 1-1,,true,4152,1,1,0
1456640387520,6,Logging,200,OK,Thread Group 1-2,text,true,0,2,2,0
1456640388010,5879,Navigate to Address Page through the Load Balancer,200,"Number of samples in transaction : 1, number of failing samples : 0",Thread Group 1-2,,true,255909,2,2,0
1456640394218,13722,Address Page,200,"Number of samples in transaction : 13, number of failing samples : 0",Thread Group 1-2,,true,11866,2,2,0
1456640408339,5100,Exterior Page,200,"Number of samples in transaction : 17, number of failing samples : 0",Thread Group 1-2,,true,46058,2,2,0
1456640413847,5975,Interior Page,200,"Number of samples in transaction : 13, number of failing samples : 0",Thread Group 1-2,,true,4152,2,2,0
1456640427567,5,Logging,200,OK,Thread Group 1-3,text,true,0,3,3,0
1456640427912,6031,Navigate to Address Page through the Load Balancer,200,"Number of samples in transaction : 1, number of failing samples : 0",Thread Group 1-3,,true,255859,3,3,0
1456640386265,47445,Additional Information,200,"Number of samples in transaction : 18, number of failing samples : 0",Thread Group 1-1,,true,16429,3,3,0
1456640433948,14207,Address Page,200,"Number of samples in transaction : 13, number of failing samples : 0",Thread Group 1-3,,true,11866,3,3,0
1456640448182,7327,Exterior Page,200,"Number of samples in transaction : 17, number of failing samples : 0",Thread Group 1-3,,true,46058,3,3,0
1456640455563,5355,Interior Page,200,"Number of samples in transaction : 13, number of failing samples : 0",Thread Group 1-3,,true,4152,3,3,0
1456640420210,41762,Additional Information,200,"Number of samples in transaction : 18, number of failing samples : 0",Thread Group 1-2,,true,16429,3,3,0
1456640467581,5,Logging,200,OK,Thread Group 1-4,text,true,0,4,4,0
1456640434885,37231,SSN Verification,200,"Number of samples in transaction : 8, number of failing samples : 0",Thread Group 1-1,,true,4792,4,4,0
1456640468050,5950,Navigate to Address Page through the Load Balancer,200,"Number of samples in transaction : 1, number of failing samples : 0",Thread Group 1-4,,true,255829,4,4,0
1456640474349,13660,Address Page,200,"Number of samples in transaction : 13, number of failing samples : 0",Thread Group 1-4,,true,11866,4,4,0
1456640488411,6329,Exterior Page,200,"Number of samples in transaction : 17, number of failing samples : 0",Thread Group 1-4,,true,46058,4,4,0
1456640495155,4719,Interior Page,200,"Number of samples in transaction : 13, number of failing samples : 0",Thread Group 1-4,,true,4152,4,4,0
1456640460955,44978,Additional Information,200,"Number of samples in transaction : 18, number of failing samples : 0",Thread Group 1-3,,true,16442,4,4,0
1456640507576,5,Logging,200,OK,Thread Group 1-5,text,true,0,5,5,0
1456640507929,4549,Navigate to Address Page through the Load Balancer,200,"Number of samples in transaction : 1, number of failing samples : 0",Thread Group 1-5,,true,255859,5,5,0
1456640465316,52463,SSN Verification,200,"Number of samples in transaction : 8, number of failing samples : 0",Thread Group 1-2,,true,4797,5,5,0
1456640500256,19290,Additional Information,200,"Number of samples in transaction : 18, number of failing samples : 0",Thread Group 1-4,,true,16442,5,5,0
1456640507929,18204,SSN Verification,200,"Number of samples in transaction : 8, number of failing samples : 0",Thread Group 1-3,,true,4848,5,5,0
1456640512483,15882,Address Page,200,"Number of samples in transaction : 13, number of failing samples : 0",Thread Group 1-5,,true,11866,5,5,0
